EESchema Schematic File Version 2
LIBS:VincentDavoust
LIBS:power
LIBS:device
LIBS:transistors
LIBS:conn
LIBS:linear
LIBS:regul
LIBS:74xx
LIBS:cmos4000
LIBS:adc-dac
LIBS:memory
LIBS:xilinx
LIBS:special
LIBS:microcontrollers
LIBS:dsp
LIBS:microchip
LIBS:analog_switches
LIBS:motorola
LIBS:texas
LIBS:intel
LIBS:audio
LIBS:interface
LIBS:digital-audio
LIBS:philips
LIBS:display
LIBS:cypress
LIBS:siliconi
LIBS:opto
LIBS:atmel
LIBS:contrib
LIBS:valves
LIBS:base-2-cache
EELAYER 27 0
EELAYER END
$Descr A4 11693 8268
encoding utf-8
Sheet 1 1
Title ""
Date "11 jan 2016"
Rev ""
Comp ""
Comment1 ""
Comment2 ""
Comment3 ""
Comment4 ""
$EndDescr
Text GLabel 5600 6475 0    60   BiDi ~ 0
GND
$Comp
L CONN_2 K0
U 1 1 52C1BC48
P 3650 6075
F 0 "K0" V 3600 6075 40  0000 C CNN
F 1 "ALIM_AUX" V 3700 6075 40  0000 C CNN
F 2 "~" H 3650 6075 60  0000 C CNN
F 3 "~" H 3650 6075 60  0000 C CNN
	1    3650 6075
	0    -1   -1   0   
$EndComp
Text GLabel 3550 6425 0    60   Input ~ 0
GND
$Comp
L DIODE D1
U 1 1 52C1BC6D
P 3950 6425
F 0 "D1" H 3950 6525 40  0000 C CNN
F 1 "DIODE" H 3950 6325 40  0000 C CNN
F 2 "~" H 3950 6425 60  0000 C CNN
F 3 "~" H 3950 6425 60  0000 C CNN
	1    3950 6425
	1    0    0    -1  
$EndComp
$Comp
L DIODE D2
U 1 1 52C1BC7E
P 5300 6675
F 0 "D2" H 5300 6775 40  0000 C CNN
F 1 "DIODE" H 5300 6575 40  0000 C CNN
F 2 "~" H 5300 6675 60  0000 C CNN
F 3 "~" H 5300 6675 60  0000 C CNN
	1    5300 6675
	-1   0    0    1   
$EndComp
Text GLabel 5675 6950 2    60   Output ~ 0
VCC
$Comp
L 7805 U0
U 1 1 52C1BCFC
P 4975 7000
F 0 "U0" H 5125 6804 60  0000 C CNN
F 1 "78l33" H 4975 7200 60  0000 C CNN
F 2 "~" H 4975 7000 60  0000 C CNN
F 3 "~" H 4975 7000 60  0000 C CNN
	1    4975 7000
	1    0    0    -1  
$EndComp
$Comp
L C C0
U 1 1 52C1BD15
P 4525 7150
F 0 "C0" H 4525 7250 40  0000 L CNN
F 1 "max possible" H 4531 7065 40  0000 L CNN
F 2 "~" H 4563 7000 30  0000 C CNN
F 3 "~" H 4525 7150 60  0000 C CNN
	1    4525 7150
	1    0    0    -1  
$EndComp
$Comp
L C C1
U 1 1 52C1BD2C
P 5425 7150
F 0 "C1" H 5425 7250 40  0000 L CNN
F 1 "4.7u" H 5431 7065 40  0000 L CNN
F 2 "~" H 5463 7000 30  0000 C CNN
F 3 "~" H 5425 7150 60  0000 C CNN
	1    5425 7150
	1    0    0    -1  
$EndComp
Text GLabel 5850 6475 2    60   UnSpc ~ 0
MOTOR_CMD
$Comp
L CONN_10 K5
U 1 1 52C1BE48
P 6750 3050
F 0 "K5" V 6700 3050 60  0000 C CNN
F 1 "RADIO0" V 6800 3050 60  0000 C CNN
F 2 "~" H 6750 3050 60  0000 C CNN
F 3 "~" H 6750 3050 60  0000 C CNN
	1    6750 3050
	-1   0    0    1   
$EndComp
$Comp
L C C2
U 1 1 52C1BE8B
P 1475 6375
F 0 "C2" H 1475 6475 40  0000 L CNN
F 1 "1u" H 1481 6290 40  0000 L CNN
F 2 "~" H 1513 6225 30  0000 C CNN
F 3 "~" H 1475 6375 60  0000 C CNN
	1    1475 6375
	-1   0    0    1   
$EndComp
Text GLabel 4925 7550 0    60   Input ~ 0
GND
$Comp
L R R1
U 1 1 52C1BF7D
P 3750 6775
F 0 "R1" V 3830 6775 40  0000 C CNN
F 1 "470k" V 3757 6776 40  0000 C CNN
F 2 "~" V 3680 6775 30  0000 C CNN
F 3 "~" H 3750 6775 30  0000 C CNN
	1    3750 6775
	1    0    0    -1  
$EndComp
$Comp
L R R0
U 1 1 52C1BF8A
P 3550 6775
F 0 "R0" V 3630 6775 40  0000 C CNN
F 1 "100k" V 3557 6776 40  0000 C CNN
F 2 "~" V 3480 6775 30  0000 C CNN
F 3 "~" H 3550 6775 30  0000 C CNN
	1    3550 6775
	1    0    0    -1  
$EndComp
Text GLabel 3850 7025 2    60   Output ~ 0
V_AUX
$Comp
L ATMEGA168-A IC0
U 1 1 52C1C423
P 1800 1900
F 0 "IC0" H 1050 3150 40  0000 L BNN
F 1 "ATMEGA168-A" H 2250 500 40  0000 L BNN
F 2 "TQFP32" H 1800 1900 30  0000 C CIN
F 3 "~" H 1800 1900 60  0000 C CNN
	1    1800 1900
	1    0    0    -1  
$EndComp
$Comp
L AVR-ISP-6 K8
U 1 1 52C1C44E
P 4075 850
F 0 "K8" H 3995 1090 50  0000 C CNN
F 1 "AVR-ISP-6" H 3835 620 50  0000 L BNN
F 2 "AVR-ISP-6" V 3555 890 50  0001 C CNN
F 3 "~" H 4075 850 60  0000 C CNN
	1    4075 850 
	1    0    0    -1  
$EndComp
$Comp
L LED D0
U 1 1 52C1C4C4
P 2075 6375
F 0 "D0" H 2075 6475 50  0000 C CNN
F 1 "LED" H 2075 6275 50  0000 C CNN
F 2 "~" H 2075 6375 60  0000 C CNN
F 3 "~" H 2075 6375 60  0000 C CNN
	1    2075 6375
	0    1    1    0   
$EndComp
$Comp
L R R4
U 1 1 52C1C4D3
P 2075 6825
F 0 "R4" V 2155 6825 40  0000 C CNN
F 1 "220" V 2082 6826 40  0000 C CNN
F 2 "~" V 2005 6825 30  0000 C CNN
F 3 "~" H 2075 6825 30  0000 C CNN
	1    2075 6825
	1    0    0    -1  
$EndComp
Text GLabel 1300 7075 0    60   Input ~ 0
GND
Text GLabel 1300 6175 0    60   Input ~ 0
VCC
Text GLabel 850  700  0    60   Input ~ 0
VCC
Text GLabel 800  3200 0    60   Input ~ 0
GND
Text GLabel 4200 1225 2    60   BiDi ~ 0
MOSI
Text GLabel 4200 1350 2    60   BiDi ~ 0
MISO
Text GLabel 4200 1475 2    60   BiDi ~ 0
SCK
Text GLabel 2800 2400 2    48   Input ~ 0
RXD
Text GLabel 2800 2500 2    48   Output ~ 0
TXD
Text GLabel 2800 2800 2    60   Output ~ 0
XCK
Text GLabel 4525 850  2    60   Output ~ 0
PB3
Text GLabel 3675 850  0    60   Output ~ 0
PB5
Text GLabel 3650 725  0    60   Input ~ 0
PB4
Text GLabel 3675 975  0    60   Output ~ 0
RESET
Text GLabel 4525 700  2    60   BiDi ~ 0
VCC
Text GLabel 4525 1000 2    60   BiDi ~ 0
GND
$Comp
L CONN_3 K1
U 1 1 52C1BAF7
P 5700 6125
F 0 "K1" V 5650 6125 50  0000 C CNN
F 1 "MOTOR" V 5750 6125 40  0000 C CNN
F 2 "~" H 5700 6125 60  0000 C CNN
F 3 "~" H 5700 6125 60  0000 C CNN
	1    5700 6125
	0    -1   -1   0   
$EndComp
$Comp
L CONN_10 K9
U 1 1 52C3274D
P 6750 4175
F 0 "K9" V 6700 4175 60  0000 C CNN
F 1 "RADIO1" V 6800 4175 60  0000 C CNN
F 2 "~" H 6750 4175 60  0000 C CNN
F 3 "~" H 6750 4175 60  0000 C CNN
	1    6750 4175
	-1   0    0    1   
$EndComp
Text GLabel 7225 2600 2    60   Input ~ 0
VCC
Text GLabel 7200 3725 2    60   Input ~ 0
VCC
Text GLabel 7200 3500 2    60   Input ~ 0
GND
Text GLabel 7200 4625 2    60   Input ~ 0
GND
Text GLabel 7400 3200 2    60   Output ~ 0
MISO
Text GLabel 7100 3100 2    60   Input ~ 0
MOSI
Text GLabel 7400 3000 2    60   Input ~ 0
SCK
Text GLabel 7400 4325 2    60   Output ~ 0
MISO
Text GLabel 7100 4225 2    60   Input ~ 0
MOSI
Text GLabel 7400 4125 2    60   Input ~ 0
SCK
$Comp
L R R6
U 1 1 52C32BBC
P 3950 1225
F 0 "R6" V 4030 1225 40  0000 C CNN
F 1 "1k" V 3957 1226 40  0000 C CNN
F 2 "~" V 3880 1225 30  0000 C CNN
F 3 "~" H 3950 1225 30  0000 C CNN
	1    3950 1225
	0    -1   -1   0   
$EndComp
$Comp
L R R7
U 1 1 52C32BC9
P 3950 1350
F 0 "R7" V 4030 1350 40  0000 C CNN
F 1 "1k" V 3957 1351 40  0000 C CNN
F 2 "~" V 3880 1350 30  0000 C CNN
F 3 "~" H 3950 1350 30  0000 C CNN
	1    3950 1350
	0    1    -1   0   
$EndComp
$Comp
L R R8
U 1 1 52C32BCF
P 3950 1475
F 0 "R8" V 4030 1475 40  0000 C CNN
F 1 "1k" V 3957 1476 40  0000 C CNN
F 2 "~" V 3880 1475 30  0000 C CNN
F 3 "~" H 3950 1475 30  0000 C CNN
	1    3950 1475
	0    -1   -1   0   
$EndComp
$Comp
L R R5
U 1 1 52C32BD5
P 5450 750
F 0 "R5" V 5530 750 40  0000 C CNN
F 1 "1k" V 5457 751 40  0000 C CNN
F 2 "~" V 5380 750 30  0000 C CNN
F 3 "~" H 5450 750 30  0000 C CNN
	1    5450 750 
	0    -1   -1   0   
$EndComp
Text GLabel 2800 1100 2    48   BiDi ~ 0
PB3
Text GLabel 2800 1200 2    48   BiDi ~ 0
PB4
Text GLabel 2800 1300 2    48   BiDi ~ 0
PB5
Text GLabel 3700 1225 0    60   BiDi ~ 0
PB3
Text GLabel 3700 1350 0    60   BiDi ~ 0
PB4
Text GLabel 3700 1475 0    60   BiDi ~ 0
PB5
Text GLabel 2800 2250 2    60   Input ~ 0
RESET
Text GLabel 5200 750  0    60   Input ~ 0
VCC
$Comp
L C C4
U 1 1 52C32C85
P 5700 950
F 0 "C4" H 5700 1050 40  0000 L CNN
F 1 "100n" H 5706 865 40  0000 L CNN
F 2 "~" H 5738 800 30  0000 C CNN
F 3 "~" H 5700 950 60  0000 C CNN
	1    5700 950 
	1    0    0    -1  
$EndComp
Text GLabel 5700 1150 0    60   Input ~ 0
GND
Text GLabel 6050 675  2    60   BiDi ~ 0
RESET
$Comp
L SW_PUSH_SMALL SW0
U 1 1 52C32CD2
P 6025 850
F 0 "SW0" H 6150 900 30  0000 C CNN
F 1 "SW_PUSH_SMALL" H 6025 771 30  0000 C CNN
F 2 "~" H 6025 850 60  0000 C CNN
F 3 "~" H 6025 850 60  0000 C CNN
	1    6025 850 
	1    0    0    -1  
$EndComp
$Comp
L C C3
U 1 1 52C33014
P 1325 6700
F 0 "C3" H 1325 6800 40  0000 L CNN
F 1 "100u" H 1331 6615 40  0000 L CNN
F 2 "~" H 1363 6550 30  0000 C CNN
F 3 "~" H 1325 6700 60  0000 C CNN
	1    1325 6700
	1    0    0    -1  
$EndComp
$Comp
L CONN_2 B0
U 1 1 52C34EF1
P 6225 1500
F 0 "B0" V 6475 1600 40  0000 C CNN
F 1 "BUZZER" H 6275 1500 40  0000 C CNN
F 2 "~" H 6225 1500 60  0000 C CNN
F 3 "~" H 6225 1500 60  0000 C CNN
	1    6225 1500
	1    0    0    1   
$EndComp
Text GLabel 5875 1600 0    60   Input ~ 0
GND
$Comp
L R R9
U 1 1 52C34F1A
P 5625 1400
F 0 "R9" V 5705 1400 40  0000 C CNN
F 1 "0" V 5632 1401 40  0000 C CNN
F 2 "~" V 5555 1400 30  0000 C CNN
F 3 "~" H 5625 1400 30  0000 C CNN
	1    5625 1400
	0    -1   -1   0   
$EndComp
Text GLabel 5350 1400 0    60   BiDi ~ 0
BUZZ
Text GLabel 2800 1650 2    48   BiDi ~ 0
PC0
Text GLabel 2800 1750 2    48   BiDi ~ 0
PC1
Text GLabel 2800 1850 2    48   BiDi ~ 0
PC2
Text GLabel 2800 1950 2    48   BiDi ~ 0
PC3
Text GLabel 2800 2150 2    48   BiDi ~ 0
PC5
Text GLabel 2800 2050 2    48   BiDi ~ 0
PC4
$Comp
L CRYSTAL X1
U 1 1 52C36714
P 7300 925
F 0 "X1" H 7300 1075 60  0000 C CNN
F 1 "CRYSTAL" H 7300 775 60  0000 C CNN
F 2 "~" H 7300 925 60  0000 C CNN
F 3 "~" H 7300 925 60  0000 C CNN
	1    7300 925 
	1    0    0    -1  
$EndComp
$Comp
L C C6
U 1 1 52C36723
P 7725 1125
F 0 "C6" H 7725 1225 40  0000 L CNN
F 1 "33pF" H 7731 1040 40  0000 L CNN
F 2 "~" H 7763 975 30  0000 C CNN
F 3 "~" H 7725 1125 60  0000 C CNN
	1    7725 1125
	1    0    0    -1  
$EndComp
$Comp
L C C5
U 1 1 52C36730
P 6900 1125
F 0 "C5" H 6900 1225 40  0000 L CNN
F 1 "33pF" H 6906 1040 40  0000 L CNN
F 2 "~" H 6938 975 30  0000 C CNN
F 3 "~" H 6900 1125 60  0000 C CNN
	1    6900 1125
	1    0    0    -1  
$EndComp
Text GLabel 7425 1425 2    60   Input ~ 0
GND
Text GLabel 2800 1400 2    48   BiDi ~ 0
XTAL1
Text GLabel 2800 1500 2    48   BiDi ~ 0
XTAL2
Text GLabel 6825 925  0    48   BiDi ~ 0
XTAL1
Text GLabel 7800 925  2    48   BiDi ~ 0
XTAL2
Text GLabel 2800 2600 2    48   BiDi ~ 0
INT0
Text GLabel 2800 2700 2    48   BiDi ~ 0
INT1
Text GLabel 7100 3300 2    48   BiDi ~ 0
INT0
Text GLabel 7100 4425 2    48   BiDi ~ 0
INT1
Text GLabel 2800 800  2    48   BiDi ~ 0
PB0
Text GLabel 2800 900  2    48   BiDi ~ 0
PB1
Text GLabel 2800 1000 2    48   BiDi ~ 0
PB2
Text GLabel 2800 2900 2    48   BiDi ~ 0
PD5
Text GLabel 2800 3000 2    48   BiDi ~ 0
PD6
Text GLabel 7100 2800 2    48   BiDi ~ 0
PD5
Text GLabel 7100 3925 2    48   BiDi ~ 0
PD6
Text GLabel 2800 3100 2    60   BiDi ~ 0
BUZZ
$Comp
L CONN_3 K23
U 1 1 52D102DA
P 475 2250
F 0 "K23" V 425 2250 50  0000 C CNN
F 1 "CONN_3" V 525 2250 40  0000 C CNN
F 2 "~" H 475 2250 60  0000 C CNN
F 3 "~" H 475 2250 60  0000 C CNN
	1    475  2250
	-1   0    0    1   
$EndComp
$Comp
L CONN_2 K24
U 1 1 52D83C11
P 9700 1150
F 0 "K24" V 9950 1250 40  0000 C CNN
F 1 "CONN_2" H 9750 1150 40  0000 C CNN
F 2 "~" H 9700 1150 60  0000 C CNN
F 3 "~" H 9700 1150 60  0000 C CNN
	1    9700 1150
	1    0    0    1   
$EndComp
Text GLabel 9350 1250 0    60   Input ~ 0
GND
Text GLabel 9350 1050 0    60   Input ~ 0
V_AUX
$Comp
L C C7
U 1 1 5336A3BB
P 725 1625
F 0 "C7" H 725 1725 40  0000 L CNN
F 1 "100n" H 731 1540 40  0000 L CNN
F 2 "~" H 763 1475 30  0000 C CNN
F 3 "~" H 725 1625 60  0000 C CNN
	1    725  1625
	1    0    0    -1  
$EndComp
$Comp
L GND #PWR01
U 1 1 5336A3D6
P 725 1825
F 0 "#PWR01" H 725 1825 30  0001 C CNN
F 1 "GND" H 725 1755 30  0001 C CNN
F 2 "" H 725 1825 60  0000 C CNN
F 3 "" H 725 1825 60  0000 C CNN
	1    725  1825
	1    0    0    -1  
$EndComp
Text GLabel 1680 5480 0    48   BiDi ~ 0
PB2
Text GLabel 1680 5380 0    48   BiDi ~ 0
PB1
Text GLabel 1680 5280 0    48   BiDi ~ 0
PB0
Text GLabel 1870 3930 0    48   Input ~ 0
PC4
Text GLabel 1870 3830 0    48   BiDi ~ 0
PC5
Text GLabel 1870 4330 0    48   Input ~ 0
PC3
Text GLabel 1870 4230 0    48   Input ~ 0
PC2
Text GLabel 1870 4130 0    48   Input ~ 0
PC1
Text GLabel 1870 4030 0    48   Input ~ 0
PC0
Text GLabel 1680 5180 0    60   Input ~ 0
GND
Text GLabel 1870 3730 0    60   Input ~ 0
GND
Text GLabel 1870 4430 0    60   Input ~ 0
VCC
Text GLabel 1680 5580 0    60   Input ~ 0
VCC
$Comp
L CONN_8 P0
U 1 1 5645E126
P 2220 4080
F 0 "P0" V 2170 4080 60  0000 C CNN
F 1 "CONN_8" V 2270 4080 60  0000 C CNN
F 2 "~" H 2220 4080 60  0000 C CNN
F 3 "~" H 2220 4080 60  0000 C CNN
	1    2220 4080
	1    0    0    -1  
$EndComp
$Comp
L CONN_5 P1
U 1 1 5645E135
P 2080 5380
F 0 "P1" V 2030 5380 50  0000 C CNN
F 1 "CONN_5" V 2130 5380 50  0000 C CNN
F 2 "~" H 2080 5380 60  0000 C CNN
F 3 "~" H 2080 5380 60  0000 C CNN
	1    2080 5380
	1    0    0    -1  
$EndComp
Text GLabel 6890 6680 0    60   UnSpc ~ 0
MOTOR_CMD
$Comp
L CONN_2 P2
U 1 1 5645E4A8
P 7240 6780
F 0 "P2" V 7190 6780 40  0000 C CNN
F 1 "CONN_2" V 7290 6780 40  0000 C CNN
F 2 "~" H 7240 6780 60  0000 C CNN
F 3 "~" H 7240 6780 60  0000 C CNN
	1    7240 6780
	1    0    0    -1  
$EndComp
Text GLabel 6890 6880 0    60   Input ~ 0
GND
Wire Wire Line
	5700 6475 5700 6675
Wire Wire Line
	5700 6675 5500 6675
Wire Wire Line
	4525 7350 5425 7350
Wire Wire Line
	5375 6950 5675 6950
Connection ~ 5425 6950
Connection ~ 4975 7350
Wire Wire Line
	4975 7550 4925 7550
Connection ~ 4975 7550
Wire Wire Line
	3750 6425 3750 6525
Wire Wire Line
	3550 6425 3550 6525
Wire Wire Line
	3550 7025 3850 7025
Connection ~ 3750 7025
Wire Wire Line
	1475 7075 1475 6575
Wire Wire Line
	4975 7250 4975 7550
Connection ~ 1475 6175
Wire Wire Line
	900  2350 900  3200
Wire Wire Line
	900  3200 800  3200
Connection ~ 900  3100
Connection ~ 900  2900
Connection ~ 900  3000
Wire Wire Line
	900  700  850  700 
Connection ~ 900  800 
Connection ~ 900  900 
Connection ~ 900  1100
Connection ~ 900  1400
Connection ~ 4525 6950
Wire Wire Line
	3650 725  3950 725 
Wire Wire Line
	3950 725  3950 750 
Wire Wire Line
	3675 850  3950 850 
Wire Wire Line
	4200 950  4525 950 
Wire Wire Line
	4525 950  4525 1000
Wire Wire Line
	4525 850  4200 850 
Wire Wire Line
	4200 750  4200 700 
Wire Wire Line
	4200 700  4525 700 
Connection ~ 2800 1100
Connection ~ 2800 1200
Connection ~ 2800 1300
Connection ~ 2800 2400
Connection ~ 2800 2500
Connection ~ 2800 2800
Wire Wire Line
	3950 950  3950 975 
Wire Wire Line
	3950 975  3675 975 
Wire Wire Line
	7100 2700 7100 2600
Wire Wire Line
	7100 2600 7225 2600
Wire Wire Line
	7100 3400 7100 3500
Wire Wire Line
	7100 3500 7200 3500
Wire Wire Line
	7100 3825 7100 3725
Wire Wire Line
	7100 3725 7200 3725
Wire Wire Line
	7100 4525 7100 4625
Wire Wire Line
	7100 4625 7200 4625
Wire Wire Line
	7100 3200 7400 3200
Wire Wire Line
	7100 3000 7400 3000
Wire Wire Line
	7100 4325 7400 4325
Wire Wire Line
	7100 4125 7400 4125
Wire Wire Line
	5700 750  5925 750 
Wire Wire Line
	5925 750  5925 675 
Wire Wire Line
	5925 675  6050 675 
Wire Wire Line
	5700 1150 6125 1150
Wire Wire Line
	6125 1150 6125 950 
Wire Wire Line
	1325 6900 1325 7075
Connection ~ 1475 7075
Connection ~ 1325 7075
Wire Wire Line
	1325 6175 1325 6500
Connection ~ 1325 6175
Wire Wire Line
	1300 7075 2075 7075
Wire Wire Line
	7600 925  7800 925 
Connection ~ 7725 925 
Wire Wire Line
	6825 925  7000 925 
Connection ~ 6900 925 
Wire Wire Line
	6900 1325 7725 1325
Wire Wire Line
	7350 1325 7350 1425
Wire Wire Line
	7350 1425 7425 1425
Connection ~ 7350 1325
Wire Wire Line
	5375 1400 5350 1400
Wire Wire Line
	7100 2900 7100 2800
Wire Wire Line
	7100 3925 7100 4025
Wire Wire Line
	5800 6475 5850 6475
Connection ~ 5375 1400
Connection ~ 5800 6475
Wire Wire Line
	4525 6950 4575 6950
Wire Wire Line
	5100 6675 4525 6675
Wire Wire Line
	4525 6425 4525 6950
Wire Wire Line
	4150 6425 4525 6425
Connection ~ 4525 6675
Wire Wire Line
	900  2350 825  2350
Wire Wire Line
	900  2250 900  2200
Wire Wire Line
	900  2200 825  2200
Wire Wire Line
	825  2200 825  2150
Wire Wire Line
	900  2150 850  2150
Wire Wire Line
	850  2150 850  2250
Wire Wire Line
	850  2250 825  2250
Wire Wire Line
	900  700  900  1100
Wire Wire Line
	900  1400 725  1400
Wire Wire Line
	725  1400 725  1425
Text GLabel 3050 4550 0    60   Input ~ 0
GND
Text GLabel 3050 4850 0    60   Input ~ 0
XCK
Text GLabel 3050 4650 0    60   Input ~ 0
RXD
Text GLabel 3050 4750 0    60   Input ~ 0
TXD
$Comp
L CONN_5 P5
U 1 1 56843A76
P 3450 4750
F 0 "P5" V 3400 4750 50  0000 C CNN
F 1 "CONN_5" V 3500 4750 50  0000 C CNN
F 2 "~" H 3450 4750 60  0000 C CNN
F 3 "~" H 3450 4750 60  0000 C CNN
	1    3450 4750
	1    0    0    -1  
$EndComp
Text GLabel 3050 4950 0    60   Input ~ 0
VCC
$Comp
L JUMPER JP1
U 1 1 5693D480
P 1775 6175
F 0 "JP1" H 1775 6325 60  0000 C CNN
F 1 "JUMPER" H 1775 6095 40  0000 C CNN
F 2 "~" H 1775 6175 60  0000 C CNN
F 3 "~" H 1775 6175 60  0000 C CNN
	1    1775 6175
	1    0    0    -1  
$EndComp
Wire Wire Line
	1300 6175 1475 6175
$EndSCHEMATC
